roman																																																																																																						
																																																																																																						
Date	Total Steps	Aerobic Steps	Aerobic Walking Time	Calories	Distance	Fat Burned	Steps Hour 0	Steps Hour 1	Steps Hour 2	Steps Hour 3	Steps Hour 4	Steps Hour 5	Steps Hour 6	Steps Hour 7	Steps Hour 8	Steps Hour 9	Steps Hour 10	Steps Hour 11	Steps Hour 12	Steps Hour 13	Steps Hour 14	Steps Hour 15	Steps Hour 16	Steps Hour 17	Steps Hour 18	Steps Hour 19	Steps Hour 20	Steps Hour 21	Steps Hour 22	Steps Hour 23	Aerobic Steps Hour 0	Aerobic Steps Hour 1	Aerobic Steps Hour 2	Aerobic Steps Hour 3	Aerobic Steps Hour 4	Aerobic Steps Hour 5	Aerobic Steps Hour 6	Aerobic Steps Hour 7	Aerobic Steps Hour 8	Aerobic Steps Hour 9	Aerobic Steps Hour 10	Aerobic Steps Hour 11	Aerobic Steps Hour 12	Aerobic Steps Hour 13	Aerobic Steps Hour 14	Aerobic Steps Hour 15	Aerobic Steps Hour 16	Aerobic Steps Hour 17	Aerobic Steps Hour 18	Aerobic Steps Hour 19	Aerobic Steps Hour 20	Aerobic Steps Hour 21	Aerobic Steps Hour 22	Aerobic Steps Hour 23	Equip Hour 0	Equip Hour 1	Equip Hour 2	Equip Hour 3	Equip Hour 4	Equip Hour 5	Equip Hour 6	Equip Hour 7	Equip Hour 8	Equip Hour 9	Equip Hour 10	Equip Hour 11	Equip Hour 12	Equip Hour 13	Equip Hour 14	Equip Hour 15	Equip Hour 16	Equip Hour 17	Equip Hour 18	Equip Hour 19	Equip Hour 20	Equip Hour 21	Equip Hour 22	Equip Hour 23	Event Hour 0	Event Hour 1	Event Hour 2	Event Hour 3	Event Hour 4	Event Hour 5	Event Hour 6	Event Hour 7	Event Hour 8	Event Hour 9	Event Hour 10	Event Hour 11	Event Hour 12	Event Hour 13	Event Hour 14	Event Hour 15	Event Hour 16	Event Hour 17	Event Hour 18	Event Hour 19	Event Hour 20	Event Hour 21	Event Hour 22	Event Hour 23
22.08.2019	15261 0  0  327  10  0  0 	0	0	0	0	0	0	0	0	0	0	0	0	0	0	0	0	0	0	0	0	0	0	0	0	0	0	0	0	0	0	0	0	0	0	0	0	0	0	0	0	0	0 0	0	0	0	0	0	0	0	0	0	0	0	1	0	0	1	1	0	0	0	0	0	0	1	1	1	1	0	0	0	0	0	0	0	0	0	0	0	0	0	0	0	0	0	0	0	0	0	0	0	0	0	0	0
